<svg width="90" height="54" viewBox="0 0 90 54" fill="none" xmlns="http://www.w3.org/2000/svg">
<path d="M4.08955 0H85.9105C88.169 0 90 1.57621 90 3.52057V50.4794C90 52.4238 88.169 54 85.9105 54H4.08955C1.83095 54 0 52.4238 0 50.4794V3.52057C0 1.57621 1.83095 0 4.08955 0Z" fill="#262626"/>
<path d="M37.7148 17.0508H52.0371V36.9109H37.7148V17.0508Z" fill="#FF5F00"/>
<path d="M39.1899 26.9826C39.1863 23.1078 41.2816 19.4467 44.8718 17.0543C38.7725 12.9847 30.0137 13.5775 24.7509 18.416C19.488 23.2545 19.488 30.7143 24.7509 35.5528C30.0137 40.3913 38.7725 40.984 44.8718 36.9145C41.2803 34.5213 39.1851 30.8587 39.1899 26.9826Z" fill="#EB001B"/>
<path fill-rule="evenodd" clip-rule="evenodd" d="M67.5495 34.4892V35.3145H67.4495V34.4892H67.2358V34.3185H67.7767V34.4892H67.5495ZM68.5995 34.3185V35.3145H68.4858V34.5604L68.3086 35.2078H68.1858L68.0086 34.5604V35.3145H67.8904V34.3185H68.054L68.2449 35.0299L68.4358 34.3185H68.5995Z" fill="#F79E1B"/>
<path d="M68.9423 26.9826C68.9422 31.8181 65.69 36.2291 60.567 38.3423C55.444 40.4553 49.3496 39.8996 44.8721 36.9109C48.4608 34.5165 50.5561 30.8559 50.5561 26.9809C50.5561 23.1058 48.4608 19.4452 44.8721 17.0508C49.3496 14.0621 55.444 13.5063 60.567 15.6194C65.69 17.7325 68.9422 22.1436 68.9423 26.9792V26.9826Z" fill="#F79E1B"/>
</svg>
